Wrangling and Feature engineering
…
Rows: 164477 Columns: 9
── Column specification ────────────────────────────────────────────────────────
Delimiter: ","
chr (4): site, hybrid, date_planted, date_harvested
dbl (5): year, replicate, block, yield_mg_ha, grain_moisture

ℹ Use `spec()` to retrieve the full column specification for this data.
ℹ Specify the column types or set `show_col_types = FALSE` to quiet this message.

Code

trait_df

# A tibble: 164,477 × 9
    year site  replicate block hybrid    date_planted date_harvested yield_mg_ha
   <dbl> <chr>     <dbl> <dbl> <chr>     <chr>        <chr>                <dbl>
 1  2014 DEH1          1     1 M0088/LH… 5/5/14       9/29/14               5.72
 2  2014 DEH1          1     1 M0143/LH… 5/5/14       9/29/14              11.3 
 3  2014 DEH1          1     1 M0003/LH… 5/5/14       9/29/14               6.54
 4  2014 DEH1          1     1 M0035/LH… 5/5/14       9/29/14              10.4 
 5  2014 DEH1          1     1 M0052/LH… 5/5/14       9/29/14              10.9 
 6  2014 DEH1          1     1 M0008/LH… 5/5/14       9/29/14              11.5 
 7  2014 DEH1          1     1 M0001/LH… 5/5/14       9/29/14              11.7 
 8  2014 DEH1          1     1 M0014/LH… 5/5/14       9/29/14               1.35
 9  2014 DEH1          1     1 M0352/LH… 5/5/14       9/29/14               7.89
10  2014 DEH1          1     1 M0325/LH… 5/5/14       9/29/14               8.48
# ℹ 164,467 more rows
# ℹ 1 more variable: grain_moisture <dbl>
…
Rows: 256 Columns: 5
── Column specification ────────────────────────────────────────────────────────
Delimiter: ","
chr (2): site, previous_crop
dbl (3): year, longitude, latitude

ℹ Use `spec()` to retrieve the full column specification for this data.
ℹ Specify the column types or set `show_col_types = FALSE` to quiet this message.

Code

meta_df

# A tibble: 256 × 5
    year site  previous_crop longitude latitude
   <dbl> <chr> <chr>             <dbl>    <dbl>
 1  2014 DEH1  soybean           -75.2     38.6
 2  2014 GAH1  cotton            -83.6     31.5
 3  2014 IAH1  soybean           -93.7     42.0
 4  2014 IAH1  soybean           -93.7     42.0
 5  2014 IAH1  soybean           -93.7     42.0
 6  2014 IAH2  soybean           -94.7     42.1
 7  2014 IAH3  soybean           -92.3     42.0
 8  2014 IAH4  soybean           -91.5     41.2
 9  2014 ILH1  soybean           -88.2     40.1
10  2014 INH1  soybean           -87.0     40.5
# ℹ 246 more rows
…
Rows: 186 Columns: 6
── Column specification ────────────────────────────────────────────────────────
Delimiter: ","
chr (1): site
dbl (5): year, soilpH, om_pct, soilk_ppm, soilp_ppm

ℹ Use `spec()` to retrieve the full column specification for this data.
ℹ Specify the column types or set `show_col_types = FALSE` to quiet this message.

Code

soil_df

# A tibble: 186 × 6
    year site      soilpH om_pct soilk_ppm soilp_ppm
   <dbl> <chr>      <dbl>  <dbl>     <dbl>     <dbl>
 1  2015 IAH1_2015    5.3    3.2     118        34  
 2  2015 IAH3_2015    6.5    3.4     114        38  
 3  2015 IAH4_2015    6.4    4.4      95        42  
 4  2015 INH1_2015    6.1    2.9      86        14  
 5  2015 KSH1_2015    6.5    2.1     145        11  
 6  2015 MNH1_2015    6.2    4.2     109        19  
 7  2015 MOH1_2015    6.4    2.3     104        18  
 8  2015 MOH2_2015    7.1    1.8      93.5      38.5
 9  2015 NEH2_2015    5.8    1.6     330        40  
10  2015 NEH3_2015    6.4    2       455        27  
# ℹ 176 more rows
…
trait_Wr

# A tibble: 106,128 × 6
    year site  hybrid                      Ref_yield plant_doy harvest_doy
   <dbl> <chr> <chr>                           <dbl>     <dbl>       <dbl>
 1  2014 DEH1  B37/MO17                        11.0        125         272
 2  2014 DEH1  B37/OH43                        10.2        125         272
 3  2014 DEH1  B73/MO17                        12.2        125         272
 4  2014 DEH1  B73/PHG35                       10.2        125         272
 5  2014 DEH1  B73/PHM49                       11.4        125         272
 6  2014 DEH1  B73/PHN82                       10.5        125         272
 7  2014 DEH1  B73/TX205                       10.1        125         272
 8  2014 DEH1  B73_NC230-041-1-1-1-1/LH195      7.51       125         272
 9  2014 DEH1  B73_NC230-126-1-1-1-1/LH195      8.75       125         272
10  2014 DEH1  B73_NC230-127-1-1-1-1/LH195      9.43       125         272
# ℹ 106,118 more rows
2.2 Soil Wrangling

Code

soil_wr = soil_df %>%
  mutate(
    site = str_remove_all(site, "[a-z]"),
    site = str_replace(site, "-.*$", ""),
    site = str_replace(site, "_.*$", "")
  ) %>%
  ungroup()

soil_wr

# A tibble: 186 × 6
    year site  soilpH om_pct soilk_ppm soilp_ppm
   <dbl> <chr>  <dbl>  <dbl>     <dbl>     <dbl>
 1  2015 IAH1     5.3    3.2     118        34  
 2  2015 IAH3     6.5    3.4     114        38  
 3  2015 IAH4     6.4    4.4      95        42  
 4  2015 INH1     6.1    2.9      86        14  
 5  2015 KSH1     6.5    2.1     145        11  
 6  2015 MNH1     6.2    4.2     109        19  
 7  2015 MOH1     6.4    2.3     104        18  
 8  2015 MOH2     7.1    1.8      93.5      38.5
 9  2015 NEH2     5.8    1.6     330        40  
10  2015 NEH3     6.4    2       455        27  
# ℹ 176 more rows
…
meta_wr1 = meta_df %>%
  rename(
    lon = longitude,
    lat = latitude
  ) %>%
  mutate(site = str_remove_all(site, "[a-z]"),
         site = str_replace(site, "-.*$", ""),
         site = str_replace(site, "_.*$", "")) %>%
  distinct(year, site, .keep_all = TRUE) %>%
  ungroup()

meta_wr1

# A tibble: 248 × 5
    year site  previous_crop   lon   lat
   <dbl> <chr> <chr>         <dbl> <dbl>
 1  2014 DEH1  soybean       -75.2  38.6
 2  2014 GAH1  cotton        -83.6  31.5
 3  2014 IAH1  soybean       -93.7  42.0
 4  2014 IAH2  soybean       -94.7  42.1
 5  2014 IAH3  soybean       -92.3  42.0
 6  2014 IAH4  soybean       -91.5  41.2
 7  2014 ILH1  soybean       -88.2  40.1
 8  2014 INH1  soybean       -87.0  40.5
 9  2014 MNH1  soybean       -93.5  44.1
10  2014 MOH1  soybean       -92.2  38.9
# ℹ 238 more rows
…
meta_wr

# A tibble: 248 × 5
    year site    lon   lat prev_crop
   <dbl> <chr> <dbl> <dbl> <fct>    
 1  2014 DEH1  -75.2  38.6 soybean  
 2  2014 GAH1  -83.6  31.5 cotton   
 3  2014 IAH1  -93.7  42.0 soybean  
 4  2014 IAH2  -94.7  42.1 soybean  
 5  2014 IAH3  -92.3  42.0 soybean  
 6  2014 IAH4  -91.5  41.2 soybean  
 7  2014 ILH1  -88.2  40.1 soybean  
 8  2014 INH1  -87.0  40.5 soybean  
 9  2014 MNH1  -93.5  44.1 soybean  
10  2014 MOH1  -92.2  38.9 soybean  
# ℹ 238 more rows
…
merged  = trait_Wr %>%
  left_join(soil_wr, by = c("year", "site")) %>%
  left_join(meta_wr, by = c("year", "site"))

Warning in left_join(., soil_wr, by = c("year", "site")): Detected an unexpected many-to-many relationship between `x` and `y`.
ℹ Row 36603 of `x` matches multiple rows in `y`.
ℹ Row 1 of `y` matches multiple rows in `x`.
ℹ If a many-to-many relationship is expected, set `relationship =
  "many-to-many"` to silence this warning.

Code

merged

# A tibble: 107,955 × 13
    year site  hybrid    Ref_yield plant_doy harvest_doy soilpH om_pct soilk_ppm
   <dbl> <chr> <chr>         <dbl>     <dbl>       <dbl>  <dbl>  <dbl>     <dbl>
 1  2014 DEH1  B37/MO17      11.0        125         272     NA     NA        NA
 2  2014 DEH1  B37/OH43      10.2        125         272     NA     NA        NA
 3  2014 DEH1  B73/MO17      12.2        125         272     NA     NA        NA
 4  2014 DEH1  B73/PHG35     10.2        125         272     NA     NA        NA
 5  2014 DEH1  B73/PHM49     11.4        125         272     NA     NA        NA
 6  2014 DEH1  B73/PHN82     10.5        125         272     NA     NA        NA
 7  2014 DEH1  B73/TX205     10.1        125         272     NA     NA        NA
 8  2014 DEH1  B73_NC23…      7.51       125         272     NA     NA        NA
 9  2014 DEH1  B73_NC23…      8.75       125         272     NA     NA        NA
10  2014 DEH1  B73_NC23…      9.43       125         272     NA     NA        NA
# ℹ 107,945 more rows
# ℹ 4 more variables: soilp_ppm <dbl>, lon <dbl>, lat <dbl>, prev_crop <fct>
…
Rows kept: 101828 (dropped: 6127)

2.3.5 Extracting Site-Year with Coordinates

Code

site_year <- merged_1 %>%
  select(year, site, lon, lat) %>%
  distinct() %>%                    
  arrange(year, site)

site_year

# A tibble: 244 × 4
    year site    lon   lat
   <dbl> <chr> <dbl> <dbl>
 1  2014 DEH1  -75.2  38.6
 2  2014 GAH1  -83.6  31.5
 3  2014 IAH1  -93.7  42.0
 4  2014 IAH2  -94.7  42.1
 5  2014 IAH3  -92.3  42.0
 6  2014 IAH4  -91.5  41.2
 7  2014 ILH1  -88.2  40.1
 8  2014 INH1  -87.0  40.5
 9  2014 MNH1  -93.5  44.1
10  2014 MOH1  -92.2  38.9
# ℹ 234 more rows
3 2- Downloading Daymet Weather Data

Code

Daymet = site_year %>% 
  mutate(weather = pmap(list(.y = year, .site = site, .lat = lat,.lon = lon), 
                        function(.y, .site, .lat, .lon) 
                        download_daymet(site = .site,lat = .lat,lon = .lon, start = .y, end = .y,simplify = T,silent = T) 
                        %>%
                          rename(.year = year,
                                 .site = site))) 

Daymet

# A tibble: 244 × 5
    year site    lon   lat weather             
   <dbl> <chr> <dbl> <dbl> <list>              
 1  2014 DEH1  -75.2  38.6 <tibble [2,555 × 9]>
 2  2014 GAH1  -83.6  31.5 <tibble [2,555 × 9]>
 3  2014 IAH1  -93.7  42.0 <tibble [2,555 × 9]>
 4  2014 IAH2  -94.7  42.1 <tibble [2,555 × 9]>
 5  2014 IAH3  -92.3  42.0 <tibble [2,555 × 9]>
 6  2014 IAH4  -91.5  41.2 <tibble [2,555 × 9]>
 7  2014 ILH1  -88.2  40.1 <tibble [2,555 × 9]>
 8  2014 INH1  -87.0  40.5 <tibble [2,555 × 9]>
 9  2014 MNH1  -93.5  44.1 <tibble [2,555 × 9]>
10  2014 MOH1  -92.2  38.9 <tibble [2,555 × 9]>
# ℹ 234 more rows

3.1 Daymet Wide Format

Code

Daymet_unnest = Daymet %>%
  select(year, site, weather) %>% 
  unnest(weather) %>% 
  pivot_wider(names_from = measurement, 
              values_from = value) %>% 
  janitor::clean_names()

Daymet_unnest

# A tibble: 89,060 × 16
    year site  site_2  tile latitude longitude altitude year_2  yday dayl_s
   <dbl> <chr> <chr>  <dbl>    <dbl>     <dbl>    <dbl>  <int> <int>  <dbl>
 1  2014 DEH1  DEH1   11573     38.6     -75.2       11   2014     1 33673.
 2  2014 DEH1  DEH1   11573     38.6     -75.2       11   2014     2 33712.
 3  2014 DEH1  DEH1   11573     38.6     -75.2       11   2014     3 33754.
 4  2014 DEH1  DEH1   11573     38.6     -75.2       11   2014     4 33799.
 5  2014 DEH1  DEH1   11573     38.6     -75.2       11   2014     5 33848.
 6  2014 DEH1  DEH1   11573     38.6     -75.2       11   2014     6 33899.
 7  2014 DEH1  DEH1   11573     38.6     -75.2       11   2014     7 33954.
 8  2014 DEH1  DEH1   11573     38.6     -75.2       11   2014     8 34012.
 9  2014 DEH1  DEH1   11573     38.6     -75.2       11   2014     9 34072.
10  2014 DEH1  DEH1   11573     38.6     -75.2       11   2014    10 34136.
# ℹ 89,050 more rows
# ℹ 6 more variables: prcp_mm_day <dbl>, srad_w_m_2 <dbl>, swe_kg_m_2 <dbl>,
#   tmax_deg_c <dbl>, tmin_deg_c <dbl>, vp_pa <dbl>
…
Daymet_all = merged %>%
  left_join(Daymet_unnest,
    by = c("year", "site"))

Warning in left_join(., Daymet_unnest, by = c("year", "site")): Detected an unexpected many-to-many relationship between `x` and `y`.
ℹ Row 1 of `x` matches multiple rows in `y`.
ℹ Row 1 of `y` matches multiple rows in `x`.
ℹ If a many-to-many relationship is expected, set `relationship =
  "many-to-many"` to silence this warning.

Code

Daymet_all

# A tibble: 37,173,347 × 27
    year site  hybrid   Ref_yield plant_doy harvest_doy soilpH om_pct soilk_ppm
   <dbl> <chr> <chr>        <dbl>     <dbl>       <dbl>  <dbl>  <dbl>     <dbl>
 1  2014 DEH1  B37/MO17      11.0       125         272     NA     NA        NA
 2  2014 DEH1  B37/MO17      11.0       125         272     NA     NA        NA
 3  2014 DEH1  B37/MO17      11.0       125         272     NA     NA        NA
 4  2014 DEH1  B37/MO17      11.0       125         272     NA     NA        NA
 5  2014 DEH1  B37/MO17      11.0       125         272     NA     NA        NA
 6  2014 DEH1  B37/MO17      11.0       125         272     NA     NA        NA
 7  2014 DEH1  B37/MO17      11.0       125         272     NA     NA        NA
 8  2014 DEH1  B37/MO17      11.0       125         272     NA     NA        NA
 9  2014 DEH1  B37/MO17      11.0       125         272     NA     NA        NA
10  2014 DEH1  B37/MO17      11.0       125         272     NA     NA        NA
# ℹ 37,173,337 more rows
# ℹ 18 more variables: soilp_ppm <dbl>, lon <dbl>, lat <dbl>, prev_crop <fct>,
#   site_2 <chr>, tile <dbl>, latitude <dbl>, longitude <dbl>, altitude <dbl>,
#   year_2 <int>, yday <int>, dayl_s <dbl>, prcp_mm_day <dbl>,
#   srad_w_m_2 <dbl>, swe_kg_m_2 <dbl>, tmax_deg_c <dbl>, tmin_deg_c <dbl>,
#   vp_pa <dbl>

Code

weather = Daymet_all

weather

# A tibble: 37,173,347 × 27
    year site  hybrid   Ref_yield plant_doy harvest_doy soilpH om_pct soilk_ppm
   <dbl> <chr> <chr>        <dbl>     <dbl>       <dbl>  <dbl>  <dbl>     <dbl>
 1  2014 DEH1  B37/MO17      11.0       125         272     NA     NA        NA
 2  2014 DEH1  B37/MO17      11.0       125         272     NA     NA        NA
 3  2014 DEH1  B37/MO17      11.0       125         272     NA     NA        NA
 4  2014 DEH1  B37/MO17      11.0       125         272     NA     NA        NA
 5  2014 DEH1  B37/MO17      11.0       125         272     NA     NA        NA
 6  2014 DEH1  B37/MO17      11.0       125         272     NA     NA        NA
 7  2014 DEH1  B37/MO17      11.0       125         272     NA     NA        NA
 8  2014 DEH1  B37/MO17      11.0       125         272     NA     NA        NA
 9  2014 DEH1  B37/MO17      11.0       125         272     NA     NA        NA
10  2014 DEH1  B37/MO17      11.0       125         272     NA     NA        NA
# ℹ 37,173,337 more rows
# ℹ 18 more variables: soilp_ppm <dbl>, lon <dbl>, lat <dbl>, prev_crop <fct>,
#   site_2 <chr>, tile <dbl>, latitude <dbl>, longitude <dbl>, altitude <dbl>,
#   year_2 <int>, yday <int>, dayl_s <dbl>, prcp_mm_day <dbl>,
#   srad_w_m_2 <dbl>, swe_kg_m_2 <dbl>, tmax_deg_c <dbl>, tmin_deg_c <dbl>,
#   vp_pa <dbl>
…
weather_m

# A tibble: 37,173,347 × 23
    year site  hybrid     lon   lat  yday yield prev_crop plant_doy harvest_doy
   <dbl> <chr> <chr>    <dbl> <dbl> <int> <dbl> <fct>         <dbl>       <dbl>
 1  2014 DEH1  B37/MO17 -75.2  38.6     1  11.0 soybean         125         272
 2  2014 DEH1  B37/MO17 -75.2  38.6     2  11.0 soybean         125         272
 3  2014 DEH1  B37/MO17 -75.2  38.6     3  11.0 soybean         125         272
 4  2014 DEH1  B37/MO17 -75.2  38.6     4  11.0 soybean         125         272
 5  2014 DEH1  B37/MO17 -75.2  38.6     5  11.0 soybean         125         272
 6  2014 DEH1  B37/MO17 -75.2  38.6     6  11.0 soybean         125         272
 7  2014 DEH1  B37/MO17 -75.2  38.6     7  11.0 soybean         125         272
 8  2014 DEH1  B37/MO17 -75.2  38.6     8  11.0 soybean         125         272
 9  2014 DEH1  B37/MO17 -75.2  38.6     9  11.0 soybean         125         272
10  2014 DEH1  B37/MO17 -75.2  38.6    10  11.0 soybean         125         272
# ℹ 37,173,337 more rows
# ℹ 13 more variables: soil.ph <dbl>, soil.om.pct <dbl>, soil.k.ppm <dbl>,
#   soil.p.ppm <dbl>, dayl.s <dbl>, prcp.mm <dbl>, srad.wm2 <dbl>,
#   tmax.c <dbl>, tmin.c <dbl>, vp.pa <dbl>, date <date>, month <dbl>,
#   month_abb <ord>
…
    harvest_stages = case_when(
      harvest_doy <= 260                    ~ "early",  
      harvest_doy >= 261 & harvest_doy <= 290 ~ "normal",   
      harvest_doy > 290                     ~ "late",     
      TRUE                                   ~ NA_character_) %>% 
      fct_relevel("early","normal","late")
  ) %>%
  select(-plant_doy, -plant_doy)

weather_m

# A tibble: 37,173,347 × 24
    year site  hybrid     lon   lat  yday yield prev_crop harvest_doy soil.ph
   <dbl> <chr> <chr>    <dbl> <dbl> <int> <dbl> <fct>           <dbl>   <dbl>
 1  2014 DEH1  B37/MO17 -75.2  38.6     1  11.0 soybean           272      NA
 2  2014 DEH1  B37/MO17 -75.2  38.6     2  11.0 soybean           272      NA
 3  2014 DEH1  B37/MO17 -75.2  38.6     3  11.0 soybean           272      NA
 4  2014 DEH1  B37/MO17 -75.2  38.6     4  11.0 soybean           272      NA
 5  2014 DEH1  B37/MO17 -75.2  38.6     5  11.0 soybean           272      NA
 6  2014 DEH1  B37/MO17 -75.2  38.6     6  11.0 soybean           272      NA
 7  2014 DEH1  B37/MO17 -75.2  38.6     7  11.0 soybean           272      NA
 8  2014 DEH1  B37/MO17 -75.2  38.6     8  11.0 soybean           272      NA
 9  2014 DEH1  B37/MO17 -75.2  38.6     9  11.0 soybean           272      NA
10  2014 DEH1  B37/MO17 -75.2  38.6    10  11.0 soybean           272      NA
# ℹ 37,173,337 more rows
# ℹ 14 more variables: soil.om.pct <dbl>, soil.k.ppm <dbl>, soil.p.ppm <dbl>,
#   dayl.s <dbl>, prcp.mm <dbl>, srad.wm2 <dbl>, tmax.c <dbl>, tmin.c <dbl>,
#   vp.pa <dbl>, date <date>, month <dbl>, month_abb <ord>,
#   planting_stages <fct>, harvest_stages <fct>
…
`summarise()` has grouped output by 'year', 'site', 'hybrid', 'lon', 'lat',
'month_abb', 'yield', 'prev_crop', 'planting_stages'. You can override using
the `.groups` argument.

Code

weather_s

# A tibble: 1,206,139 × 20
    year site  hybrid     lon   lat month_abb yield prev_crop planting_stages
   <dbl> <chr> <chr>    <dbl> <dbl> <ord>     <dbl> <fct>     <fct>          
 1  2014 DEH1  B37/MO17 -75.2  38.6 Jan        11.0 soybean   normal         
 2  2014 DEH1  B37/MO17 -75.2  38.6 Feb        11.0 soybean   normal         
 3  2014 DEH1  B37/MO17 -75.2  38.6 Mar        11.0 soybean   normal         
 4  2014 DEH1  B37/MO17 -75.2  38.6 Apr        11.0 soybean   normal         
 5  2014 DEH1  B37/MO17 -75.2  38.6 May        11.0 soybean   normal         
 6  2014 DEH1  B37/MO17 -75.2  38.6 Jun        11.0 soybean   normal         
 7  2014 DEH1  B37/MO17 -75.2  38.6 Jul        11.0 soybean   normal         
 8  2014 DEH1  B37/MO17 -75.2  38.6 Aug        11.0 soybean   normal         
 9  2014 DEH1  B37/MO17 -75.2  38.6 Sep        11.0 soybean   normal         
10  2014 DEH1  B37/MO17 -75.2  38.6 Oct        11.0 soybean   normal         
# ℹ 1,206,129 more rows
# ℹ 11 more variables: harvest_stages <fct>, mean_soil.ph <dbl>,
#   mean_soil.om.pct <dbl>, mean_soil.k.ppm <dbl>, mean_soil.p.ppm <dbl>,
#   mean_dayl.s <dbl>, mean_srad.wm2 <dbl>, mean_tmax.c <dbl>,
#   mean_tmin.c <dbl>, mean_vp.pa <dbl>, sum_prcp.mm <dbl>
…
